<mxfile host="65bd71144e">
    <diagram id="HlzU85leXkKEeBodYjbH" name="第 1 页">
        <mxGraphModel dx="977" dy="542" grid="1" gridSize="10" guides="1" tooltips="1" connect="1" arrows="1" fold="1" page="1" pageScale="1" pageWidth="827" pageHeight="1169" math="0" shadow="0">
            <root>
                <mxCell id="0"/>
                <mxCell id="1" parent="0"/>
                <mxCell id="2" value="mousemove&lt;br&gt;return (ref(x),ref(y))&lt;br&gt;&lt;br&gt;获取鼠标当前的实时坐标" style="rounded=0;whiteSpace=wrap;html=1;" vertex="1" parent="1">
                    <mxGeometry x="160" y="280" width="190" height="60" as="geometry"/>
                </mxCell>
                <mxCell id="3" value="组合式函数(Vue工具)" style="text;html=1;strokeColor=none;fillColor=none;align=center;verticalAlign=middle;whiteSpace=wrap;rounded=0;" vertex="1" parent="1">
                    <mxGeometry x="160" y="240" width="140" height="30" as="geometry"/>
                </mxCell>
            </root>
        </mxGraphModel>
    </diagram>
</mxfile>