module github.com/infraboard/mpaas

go 1.21

toolchain go1.22.0

require (
	dario.cat/mergo v1.0.0
	github.com/alibabacloud-go/tea v1.2.1
	github.com/caarlos0/env/v6 v6.10.1
	github.com/emicklei/go-restful-openapi/v2 v2.9.1
	github.com/emicklei/go-restful/v3 v3.12.0
	github.com/go-openapi/spec v0.21.0
	github.com/go-playground/validator/v10 v10.19.0
	github.com/gorilla/websocket v1.5.0
	github.com/infraboard/mcenter v0.0.31
	github.com/infraboard/mcube/v2 v2.0.12
	github.com/kvtools/valkeyrie v1.0.0
	github.com/rs/xid v1.5.0
	github.com/rs/zerolog v1.32.0
	github.com/spf13/cobra v1.8.0
	github.com/stretchr/testify v1.9.0
	github.com/traefik/paerser v0.2.0
	go.etcd.io/etcd/client/v3 v3.5.9
	go.mongodb.org/mongo-driver v1.14.0
	go.opentelemetry.io/contrib/instrumentation/google.golang.org/grpc/otelgrpc v0.49.0
	google.golang.org/grpc v1.63.2
	google.golang.org/protobuf v1.33.0
	k8s.io/api v0.29.3
	k8s.io/apimachinery v0.29.3
	k8s.io/client-go v0.29.3
	k8s.io/kubectl v0.29.3
	sigs.k8s.io/yaml v1.4.0
)

require (
	github.com/BurntSushi/toml v1.3.2 // indirect
	github.com/alibabacloud-go/debug v0.0.0-20190504072949-9472017b5c68 // indirect
	github.com/beorn7/perks v1.0.1 // indirect
	github.com/bluele/gcache v0.0.2 // indirect
	github.com/cenkalti/backoff/v4 v4.2.1 // indirect
	github.com/cespare/xxhash/v2 v2.2.0 // indirect
	github.com/coreos/go-semver v0.3.0 // indirect
	github.com/coreos/go-systemd/v22 v22.5.0 // indirect
	github.com/davecgh/go-spew v1.1.1 // indirect
	github.com/dgryski/go-rendezvous v0.0.0-20200823014737-9f7001d12a5f // indirect
	github.com/dustin/go-humanize v1.0.1 // indirect
	github.com/felixge/httpsnoop v1.0.4 // indirect
	github.com/gabriel-vasile/mimetype v1.4.3 // indirect
	github.com/go-logr/logr v1.4.1 // indirect
	github.com/go-logr/stdr v1.2.2 // indirect
	github.com/go-openapi/jsonpointer v0.21.0 // indirect
	github.com/go-openapi/jsonreference v0.21.0 // indirect
	github.com/go-openapi/swag v0.23.0 // indirect
	github.com/go-playground/locales v0.14.1 // indirect
	github.com/go-playground/universal-translator v0.18.1 // indirect
	github.com/gogo/protobuf v1.3.2 // indirect
	github.com/golang/protobuf v1.5.4 // indirect
	github.com/golang/snappy v0.0.1 // indirect
	github.com/google/gnostic-models v0.6.8 // indirect
	github.com/google/go-cmp v0.6.0 // indirect
	github.com/google/gofuzz v1.2.0 // indirect
	github.com/google/uuid v1.6.0 // indirect
	github.com/grpc-ecosystem/grpc-gateway/v2 v2.19.0 // indirect
	github.com/imdario/mergo v0.3.16 // indirect
	github.com/inconshreveable/mousetrap v1.1.0 // indirect
	github.com/josharian/intern v1.0.0 // indirect
	github.com/json-iterator/go v1.1.12 // indirect
	github.com/klauspost/compress v1.15.9 // indirect
	github.com/leodido/go-urn v1.4.0 // indirect
	github.com/mailru/easyjson v0.7.7 // indirect
	github.com/mattn/go-colorable v0.1.13 // indirect
	github.com/mattn/go-isatty v0.0.20 // indirect
	github.com/moby/spdystream v0.2.0 // indirect
	github.com/modern-go/concurrent v0.0.0-20180306012644-bacd9c7ef1dd // indirect
	github.com/modern-go/reflect2 v1.0.2 // indirect
	github.com/montanaflynn/stats v0.0.0-20171201202039-1bf9dbcd8cbe // indirect
	github.com/mssola/user_agent v0.6.0 // indirect
	github.com/munnerz/goautoneg v0.0.0-20191010083416-a7dc8b61c822 // indirect
	github.com/mxk/go-flowrate v0.0.0-20140419014527-cca7078d478f // indirect
	github.com/pkg/errors v0.9.1 // indirect
	github.com/pmezard/go-difflib v1.0.0 // indirect
	github.com/prometheus/client_golang v1.19.0 // indirect
	github.com/prometheus/client_model v0.5.0 // indirect
	github.com/prometheus/common v0.48.0 // indirect
	github.com/prometheus/procfs v0.12.0 // indirect
	github.com/redis/go-redis/extra/rediscmd/v9 v9.0.5 // indirect
	github.com/redis/go-redis/extra/redisotel/v9 v9.0.5 // indirect
	github.com/redis/go-redis/v9 v9.5.1 // indirect
	github.com/spf13/pflag v1.0.5 // indirect
	github.com/ugorji/go/codec v1.2.12 // indirect
	github.com/xdg-go/pbkdf2 v1.0.0 // indirect
	github.com/xdg-go/scram v1.1.2 // indirect
	github.com/xdg-go/stringprep v1.0.4 // indirect
	github.com/youmark/pkcs8 v0.0.0-20181117223130-1be2e3e5546d // indirect
	go.etcd.io/etcd/api/v3 v3.5.9 // indirect
	go.etcd.io/etcd/client/pkg/v3 v3.5.9 // indirect
	go.opentelemetry.io/contrib/instrumentation/github.com/emicklei/go-restful/otelrestful v0.49.0 // indirect
	go.opentelemetry.io/contrib/instrumentation/go.mongodb.org/mongo-driver/mongo/otelmongo v0.49.0 // indirect
	go.opentelemetry.io/contrib/instrumentation/net/http/httptrace/otelhttptrace v0.49.0 // indirect
	go.opentelemetry.io/contrib/instrumentation/net/http/otelhttp v0.49.0 // indirect
	go.opentelemetry.io/otel v1.24.0 // indirect
	go.opentelemetry.io/otel/exporters/otlp/otlptrace v1.24.0 // indirect
	go.opentelemetry.io/otel/exporters/otlp/otlptrace/otlptracehttp v1.24.0 // indirect
	go.opentelemetry.io/otel/metric v1.24.0 // indirect
	go.opentelemetry.io/otel/sdk v1.24.0 // indirect
	go.opentelemetry.io/otel/trace v1.24.0 // indirect
	go.opentelemetry.io/proto/otlp v1.1.0 // indirect
	go.uber.org/goleak v1.3.0 // indirect
	go.uber.org/multierr v1.10.0 // indirect
	go.uber.org/zap v1.26.0 // indirect
	golang.org/x/crypto v0.21.0 // indirect
	golang.org/x/net v0.22.0 // indirect
	golang.org/x/oauth2 v0.17.0 // indirect
	golang.org/x/sync v0.6.0 // indirect
	golang.org/x/sys v0.18.0 // indirect
	golang.org/x/term v0.18.0 // indirect
	golang.org/x/text v0.14.0 // indirect
	golang.org/x/time v0.3.0 // indirect
	google.golang.org/appengine v1.6.8 // indirect
	google.golang.org/genproto v0.0.0-20240227224415-6ceb2ff114de // indirect
	google.golang.org/genproto/googleapis/api v0.0.0-20240227224415-6ceb2ff114de // indirect
	google.golang.org/genproto/googleapis/rpc v0.0.0-20240227224415-6ceb2ff114de // indirect
	gopkg.in/inf.v0 v0.9.1 // indirect
	gopkg.in/natefinch/lumberjack.v2 v2.2.1 // indirect
	gopkg.in/yaml.v2 v2.4.0 // indirect
	gopkg.in/yaml.v3 v3.0.1 // indirect
	k8s.io/klog/v2 v2.110.1 // indirect
	k8s.io/kube-openapi v0.0.0-20231010175941-2dd684a91f00 // indirect
	k8s.io/utils v0.0.0-20230726121419-3b25d923346b // indirect
	sigs.k8s.io/json v0.0.0-20221116044647-bc3834ca7abd // indirect
	sigs.k8s.io/structured-merge-diff/v4 v4.4.1 // indirect
)
